…
set.seed(1234)

Causal Modeling

In this tutorial, we’ll attempt to answer a causal question: does quitting smoking make you gain weight? Causal modeling has a special place in the history of smoking research: the studies that demonstrated that smoking causes lung cancer were observational. Thanks to other studies, we also know that, if you’re already a smoker, quitting smoking reduces your risk of lung cancer. However, some have observed that former smokers tend to gain weight. Is this the result of quitting smoking, or does something else explain this effect? In the book Causal Inference by Hernán and Robins, the authors analyze this question using several causal inference techniques.

To answer this question, we’ll use causal inference methods to examine the relationship between quitting smoking and gaining weight. First, we’ll draw our assumptions with a causal diagram (a directed acyclic graph, or DAG), which will guide our model. Then, we’ll use a modeling approach called inverse probability weighting–one of many causal modeling techniques–to estimate the causal effect we’re interested in.

We’ll use data from NHEFS to try to estimate the causal effect of quitting smoking on weight game. NHEFS is a longitudinal, observational study that has many of the variables we’ll need. Take a look at nhefs_codebook if you want to know more about the variables in this data set. These data are included in the {causaldata} package. We’ll use the nhefs_complete data set, but we’ll remove people who were lost to follow-up.

nhefs_complete_uc <- nhefs_complete %>% 
  filter(censored == 0)
nhefs_complete_uc

## # A tibble: 1,566 × 67
##     seqn  qsmk death yrdth modth dadth   sbp   dbp sex     age race  income
##    <dbl> <dbl> <dbl> <dbl> <dbl> <dbl> <dbl> <dbl> <fct> <dbl> <fct>  <dbl>
##  1   233     0     0    NA    NA    NA   175    96 0        42 1         19
##  2   235     0     0    NA    NA    NA   123    80 0        36 0         18
##  3   244     0     0    NA    NA    NA   115    75 1        56 1         15
##  4   245     0     1    85     2    14   148    78 0        68 1         15
##  5   252     0     0    NA    NA    NA   118    77 0        40 0         18
##  6   257     0     0    NA    NA    NA   141    83 1        43 1         11
##  7   262     0     0    NA    NA    NA   132    69 1        56 0         19
##  8   266     0     0    NA    NA    NA   100    53 1        29 0         22
##  9   419     0     1    84    10    13   163    79 0        51 0         18
## 10   420     0     1    86    10    17   184   106 0        43 0         16
## # … with 1,556 more rows, and 55 more variables: marital <dbl>, school <dbl>,
## #   education <fct>, ht <dbl>, wt71 <dbl>, wt82 <dbl>, wt82_71 <dbl>,
## #   birthplace <dbl>, smokeintensity <dbl>, smkintensity82_71 <dbl>,
## #   smokeyrs <dbl>, asthma <dbl>, bronch <dbl>, tb <dbl>, hf <dbl>, hbp <dbl>,
## #   pepticulcer <dbl>, colitis <dbl>, hepatitis <dbl>, chroniccough <dbl>,
## #   hayfever <dbl>, diabetes <dbl>, polio <dbl>, tumor <dbl>,
## #   nervousbreak <dbl>, alcoholpy <dbl>, alcoholfreq <dbl>, …
…
nhefs_complete_uc <- propensity_model %>% 
  # predict whether quit smoking
  augment(type.predict = "response", data = nhefs_complete_uc) %>% 
  # calculate inverse probability
  mutate(wts = 1 / ifelse(qsmk == 0, 1 - .fitted, .fitted))

nhefs_complete_uc %>% 
  select(qsmk, .fitted, wts)

## # A tibble: 1,566 × 3
##     qsmk .fitted   wts
##    <dbl>   <dbl> <dbl>
##  1     0  0.0987  1.11
##  2     0  0.140   1.16
##  3     0  0.126   1.14
##  4     0  0.400   1.67
##  5     0  0.294   1.42
##  6     0  0.170   1.20
##  7     0  0.220   1.28
##  8     0  0.345   1.53
##  9     0  0.283   1.40
## 10     0  0.265   1.36
## # … with 1,556 more rows
…
